<svg xmlns="http://www.w3.org/2000/svg" width="10" height="13" viewBox="0 0 10 13">
    <g fill="none" fill-rule="evenodd">
        <g fill="#FFF" stroke="#FFF" stroke-width=".72">
            <path d="M574.078 334.163c-.104-.132-.269-.19-.426-.15-.158.039-.28.17-.318.336-.037.167.018.343.142.453l3.068 3.261h-10.139c-.227.013-.405.212-.405.454 0 .242.178.441.405.454h10.139l-3.072 3.258c-.161.179-.161.46 0 .638.08.085.187.133.3.133.113 0 .221-.048.3-.133l3.8-4.035c.082-.084.128-.199.128-.32 0-.12-.046-.235-.128-.319l-3.794-4.03z" transform="translate(-567 -332) rotate(90 572 338.5)"/>
        </g>
    </g>
</svg>
